module github.com/johnsonjh/leaktestfe

go 1.19

require go.uber.org/goleak v1.2.2-0.20230213210001-751da596f6f7

require (
	github.com/davecgh/go-spew v1.1.2-0.20180830191138-d8f796af33cc // indirect
	github.com/pmezard/go-difflib v1.0.1-0.20181226105442-5d4384ee4fb2 // indirect
	github.com/stretchr/objx v0.5.1-0.20230227104534-61eb6cc3a235 // indirect
	github.com/stretchr/testify v1.8.2 // indirect
	golang.org/x/lint v0.0.0-20210508222113-6edffad5e616 // indirect
	golang.org/x/tools v0.7.1-0.20230308011436-dd1e2f66b242 // indirect
	gopkg.in/yaml.v3 v3.0.1 // indirect
)
